Mapeo de datos de quadrats a estándar DwC
…
    assign(x = tolower(str_remove(filename, ".xlsx")),
           value = aux_event, 
           envir = .GlobalEnv)
  })

[[1]]
# A tibble: 544 × 4
   eventID        measurementDeterminedDate name     measurementValue
   <chr>          <chr>                     <chr>               <dbl>
 1 P04Q1_20181121 20181121                  alt_prom             41.2
 2 P04Q1_20190604 20190604                  alt_prom             10.8
 3 P04Q1_20191218 20191218                  alt_prom             23.9
 4 P04Q1_20200519 20200519                  alt_prom             19.5
 5 P04Q1_20201117 20201117                  alt_prom             19.8
 6 P04Q1_20210519 20210519                  alt_prom             28.6
 7 P04Q2_20181121 20181121                  alt_prom             67.4
 8 P04Q2_20190604 20190604                  alt_prom             24.7
 9 P04Q2_20191218 20191218                  alt_prom             89.9
10 P04Q2_20200519 20200519                  alt_prom             40.0
# … with 534 more rows

[[2]]
# A tibble: 544 × 4
   eventID        measurementDeterminedDate name            measurementValue
   <chr>          <chr>                     <chr>                      <dbl>
 1 P04Q1_20181121 20181121                  altura_promedio            3.88 
 2 P04Q1_20190604 20190604                  altura_promedio            0.452
 3 P04Q1_20191218 20191218                  altura_promedio            0.723
 4 P04Q1_20200519 20200519                  altura_promedio            0.607
 5 P04Q1_20201117 20201117                  altura_promedio            1.05 
 6 P04Q1_20210519 20210519                  altura_promedio            1.78 
 7 P04Q2_20181121 20181121                  altura_promedio            6.91 
 8 P04Q2_20190604 20190604                  altura_promedio            0.947
 9 P04Q2_20191218 20191218                  altura_promedio            0.681
10 P04Q2_20200519 20200519                  altura_promedio            0.793
# … with 534 more rows

[[3]]
# A tibble: 544 × 4
   eventID        measurementDeterminedDate name    measurementValue
   <chr>          <chr>                     <chr>              <dbl>
 1 P04Q1_20181121 20181121                  desnudo               60
 2 P04Q1_20190604 20190604                  desnudo               70
 3 P04Q1_20191218 20191218                  desnudo               12
 4 P04Q1_20200519 20200519                  desnudo               83
 5 P04Q1_20201117 20201117                  desnudo               82
 6 P04Q1_20210519 20210519                  desnudo               65
 7 P04Q2_20181121 20181121                  desnudo                7
 8 P04Q2_20190604 20190604                  desnudo               15
 9 P04Q2_20191218 20191218                  desnudo               60
10 P04Q2_20200519 20200519                  desnudo               38
# … with 534 more rows

[[4]]
# A tibble: 539 × 4
   eventID         measurementDeterminedDate name      measurementValue
   <chr>           <chr>                     <chr>                <dbl>
 1 NP07Q1_20181121 20181121                  i_shannon            -1.57
 2 NP07Q1_20190604 20190604                  i_shannon            -2.07
 3 NP07Q1_20191218 20191218                  i_shannon            -1.99
 4 NP07Q1_20200519 20200519                  i_shannon            -2.21
 5 NP07Q1_20201117 20201117                  i_shannon            -2.09
 6 NP07Q1_20210519 20210519                  i_shannon            -1.95
 7 NP07Q2_20181121 20181121                  i_shannon            -1.20
 8 NP07Q2_20190604 20190604                  i_shannon            -1.88
 9 NP07Q2_20191218 20191218                  i_shannon            -1.44
10 NP07Q2_20200519 20200519                  i_shannon            -2.15
# … with 529 more rows

[[5]]
# A tibble: 544 × 4
   eventID        measurementDeterminedDate name    measurementValue
   <chr>          <chr>                     <chr>              <dbl>
 1 P04Q1_20181121 20181121                  fitovol             871.
 2 P04Q1_20190604 20190604                  fitovol             173.
 3 P04Q1_20191218 20191218                  fitovol             118.
 4 P04Q1_20200519 20200519                  fitovol             241.
 5 P04Q1_20201117 20201117                  fitovol             204.
 6 P04Q1_20210519 20210519                  fitovol             546.
 7 P04Q2_20181121 20181121                  fitovol            4361.
 8 P04Q2_20190604 20190604                  fitovol             238.
 9 P04Q2_20191218 20191218                  fitovol             640.
10 P04Q2_20200519 20200519                  fitovol             442.
# … with 534 more rows

[[6]]
# A tibble: 544 × 4
   eventID        measurementDeterminedDate name     measurementValue
   <chr>          <chr>                     <chr>               <dbl>
 1 P04Q1_20181121 20181121                  mantillo                5
 2 P04Q1_20190604 20190604                  mantillo                8
 3 P04Q1_20191218 20191218                  mantillo               76
 4 P04Q1_20200519 20200519                  mantillo                1
 5 P04Q1_20201117 20201117                  mantillo                2
 6 P04Q1_20210519 20210519                  mantillo                2
 7 P04Q2_20181121 20181121                  mantillo               18
 8 P04Q2_20190604 20190604                  mantillo               60
 9 P04Q2_20191218 20191218                  mantillo               25
10 P04Q2_20200519 20200519                  mantillo               40
# … with 534 more rows

[[7]]
# A tibble: 544 × 4
   eventID        measurementDeterminedDate name      measurementValue
   <chr>          <chr>                     <chr>                <dbl>
 1 P04Q1_20181121 20181121                  cob_total               35
 2 P04Q1_20190604 20190604                  cob_total               22
 3 P04Q1_20191218 20191218                  cob_total               12
 4 P04Q1_20200519 20200519                  cob_total               16
 5 P04Q1_20201117 20201117                  cob_total               16
 6 P04Q1_20210519 20210519                  cob_total               33
 7 P04Q2_20181121 20181121                  cob_total               75
 8 P04Q2_20190604 20190604                  cob_total               25
 9 P04Q2_20191218 20191218                  cob_total               15
10 P04Q2_20200519 20200519                  cob_total               22
# … with 534 more rows

[[8]]
# A tibble: 544 × 4
   eventID        measurementDeterminedDate name    measurementValue
   <chr>          <chr>                     <chr>              <dbl>
 1 P04Q1_20181121 20181121                  rec_veg             29.5
 2 P04Q1_20190604 20190604                  rec_veg             27.4
 3 P04Q1_20191218 20191218                  rec_veg              9.4
 4 P04Q1_20200519 20200519                  rec_veg             22.3
 5 P04Q1_20201117 20201117                  rec_veg             17.6
 6 P04Q1_20210519 20210519                  rec_veg             31.7
 7 P04Q2_20181121 20181121                  rec_veg             81.4
 8 P04Q2_20190604 20190604                  rec_veg             25.1
 9 P04Q2_20191218 20191218                  rec_veg             15.5
10 P04Q2_20200519 20200519                  rec_veg             18.5
# … with 534 more rows

[[9]]
# A tibble: 640 × 4
   eventID        measurementDeterminedDate name    measurementValue
   <chr>          <chr>                     <chr>              <dbl>
 1 P04Q1_20181121 20181121                  riqueza                8
 2 P04Q1_20190604 20190604                  riqueza               14
 3 P04Q1_20191009 20191009                  riqueza               11
 4 P04Q1_20191218 20191218                  riqueza               10
 5 P04Q1_20200519 20200519                  riqueza               20
 6 P04Q1_20201117 20201117                  riqueza               10
 7 P04Q1_20210519 20210519                  riqueza               10
 8 P04Q2_20181121 20181121                  riqueza               11
 9 P04Q2_20190604 20190604                  riqueza               10
10 P04Q2_20191009 20191009                  riqueza                8
# … with 630 more rows

[[10]]
# A tibble: 288 × 4
   eventID        measurementDeterminedDate name           measurementValue
   <chr>          <chr>                     <chr>                     <dbl>
 1 P04Q1_20190305 20190305                  rango_quema                   2
 2 P04Q1_20190305 20190305                  porc_soflamado               75
 3 P04Q1_20190305 20190305                  porc_quemado                 25
 4 P04Q2_20190305 20190305                  rango_quema                   4
 5 P04Q2_20190305 20190305                  porc_soflamado               30
 6 P04Q2_20190305 20190305                  porc_quemado                 70
 7 P04Q3_20190305 20190305                  rango_quema                   1
 8 P04Q3_20190305 20190305                  porc_soflamado               40
 9 P04Q3_20190305 20190305                  porc_quemado                  5
10 P04Q4_20190305 20190305                  rango_quema                   5
# … with 278 more rows

[[11]]
# A tibble: 544 × 4
   eventID        measurementDeterminedDate name         measurementValue
   <chr>          <chr>                     <chr>                   <dbl>
 1 P04Q1_20181121 20181121                  tasa_consumo            0    
 2 P04Q1_20190604 20190604                  tasa_consumo            0    
 3 P04Q1_20191218 20191218                  tasa_consumo            1.5  
 4 P04Q1_20200519 20200519                  tasa_consumo            1.64 
 5 P04Q1_20201117 20201117                  tasa_consumo            0.972
 6 P04Q1_20210519 20210519                  tasa_consumo            0.896
 7 P04Q2_20181121 20181121                  tasa_consumo            0    
 8 P04Q2_20190604 20190604                  tasa_consumo            0    
 9 P04Q2_20191218 20191218                  tasa_consumo            1.77 
10 P04Q2_20200519 20200519                  tasa_consumo            0.973
# … with 534 more rows
…
